<?xml version="1.0" encoding="utf-8"?>
<!-- Generator: Adobe Illustrator 22.0.1, SVG Export Plug-In . SVG Version: 6.00 Build 0)  -->
<svg version="1.1" id="Layer_1" xmlns="http://www.w3.org/2000/svg" xmlns:xlink="http://www.w3.org/1999/xlink" x="0px" y="0px"
	 viewBox="0 0 100 100" style="enable-background:new 0 0 100 100;" xml:space="preserve">
<style type="text/css">
	.st0{fill:none;stroke:#231F20;stroke-width:5;stroke-miterlimit:10;}
	.st1{fill:none;stroke:#231F20;stroke-width:7;stroke-miterlimit:10;}
	.st2{fill:#FFFFFF;}
	.st3{fill:#FFFFFF;stroke:#231F20;stroke-width:4;stroke-miterlimit:10;}
	.st4{fill:none;stroke:#231F20;stroke-width:4;stroke-miterlimit:10;}
	.st5{fill:none;stroke:#231F20;stroke-width:4;stroke-linejoin:round;stroke-miterlimit:10;}
	.st6{fill:#FFFFFF;stroke:#231F20;stroke-width:5;stroke-miterlimit:10;}
	.st7{fill:none;stroke:#231F20;stroke-width:3;stroke-linejoin:round;stroke-miterlimit:10;}
</style>
<path class="st2" d="M78.8,48.9C78.8,48.9,78.8,48.9,78.8,48.9c0-0.1,0-0.1,0-0.2V20.5c0-3.7-3-6.7-6.7-6.7h-4.7
	c-1,0-1.9,0.2-2.8,0.6c-0.1,0-0.1,0-0.1-0.1c-0.7-2.9-3.4-5-6.5-5h-4.7c-1,0-2,0.2-2.9,0.7c-0.1,0-0.1,0-0.1-0.1
	c-0.9-2.7-3.4-4.7-6.4-4.7h-4.7c-3,0-5.5,2-6.4,4.7c0,0.1-0.1,0.1-0.1,0.1c-0.9-0.4-1.8-0.7-2.9-0.7h-4.7c-3.7,0-6.7,3-6.7,6.7v19.7
	c0,0,0,0,0,0.1l-1.1,2c-1.5,2.6-2.5,5.4-3,8.4l-1.4,8c-1.1,6.4-0.5,13.1,1.6,19.2l0.1,0.3l14.8,21.2c0.6,0.9,1.9,1.1,2.8,0.5l0,0
	c0.9-0.6,1.1-1.9,0.5-2.8L18.3,71.8c0,0,0,0,0,0c-1.8-5.4-2.3-11.3-1.3-17l1.4-8c0.3-1.6,0.7-3.1,1.3-4.6c0.3-0.8,0.8-1.7,1.2-2.5
	l1.7-2.9l0.4-0.6c0.8-1.3,2.2-2.2,3.8-2.2h5.9h4h10.1h3.8c0.1,0,0.1,0,0.2,0c0.5,0.1,0.8,0.4,1,0.6c0.1,0.2,0.4,0.7,0.2,1.3
	c-0.3,0.8-0.7,1.6-1.1,2.3c-1,1.6-2.3,2.9-4,3.9c-0.3,0.2-0.7,0.4-1,0.5c-0.4,0.2-0.8,0.4-1.3,0.6c-2.6,1-5.8,1.5-9.7,1.5H34h-1.4
	c-0.1,0-0.1,0-0.1,0.1v11.7c0,0,0,0.1,0.1,0.1l1.5,0.3c8.1,1.8,13.2,6.8,16.5,16.4c0,0.1,0.1,0.1,0.1,0.1l0,0c2.1-0.7,3.1-3.1,2.2-5
	c-3.6-8-8.9-12.8-16.4-14.9c0,0-0.1-0.1-0.1-0.1l0-4.6c0-0.1,0-0.1,0.1-0.1c3.4-0.1,6.3-0.7,8.8-1.6c0,0,0,0,0,0
	c0.5-0.1,0.9-0.3,1.3-0.5c0.1,0,0.1,0,0.1,0.1c0.9,2.6,3.4,4.4,6.3,4.4H58c1,0,1.9-0.2,2.8-0.6c0.1,0,0.1,0,0.1,0.1
	c0.7,2.9,3.4,5.1,6.5,5.1h4.7c0.9,0,1.9-0.2,2.7-0.6c0,0,0,0,0,0v26c0,4.4-1.5,8.8-4.1,12.3c0,0-0.1,0-0.1,0l-5.9,0
	c-1.1,0-2.1,0.9-2.1,2.1v0c0,1.1,0.9,1.9,1.9,1.9h7.9c0,0,0.1,0,0.1,0l0.5-0.7c3.7-4.4,5.7-9.9,5.7-15.7L78.8,48.9L78.8,48.9z
	 M26.6,29.9c-1.4,0-2.7,0.4-3.9,1c-0.1,0-0.1,0-0.1-0.1V16.1c0-1.5,1.2-2.8,2.8-2.8h4.5c1.5,0,2.8,1.2,2.8,2.8v13.8
	c0,0.1,0,0.1-0.1,0.1H26.6z M36.7,29.9c-0.1,0-0.1,0-0.1-0.1V16v-4c0-1.5,1.2-2.8,2.8-2.8h4.5c1.5,0,2.8,1.2,2.8,2.8v4v13.9
	c0,0.1,0,0.1-0.1,0.1H36.7z M57.9,46.9h-4.5c-1.5,0-2.8-1.3-2.8-2.8l0,0c0,0,0-0.1,0-0.1c2.2-1.8,3.8-4.1,4.8-6.9
	c0.6-1.7,0.4-3.5-0.7-4.9c-1-1.4-2.5-2.2-4.1-2.3c-0.1,0-0.1,0-0.1-0.1V16.1c0-1.5,1.2-2.8,2.8-2.8h4.5c1.5,0,2.8,1.2,2.8,2.8v4.4
	v23.7C60.7,45.7,59.5,46.9,57.9,46.9z M74.8,48.7c0,1.5-1.3,2.8-2.8,2.8h-4.5c-1.5,0-2.8-1.3-2.8-2.8v-4.4V20.6
	c0-1.5,1.3-2.8,2.8-2.8H72c1.5,0,2.8,1.2,2.8,2.8V48.7z"/>
</svg>
