<?xml version="1.0" encoding="utf-8"?>
<!-- Generator: Adobe Illustrator 22.0.1, SVG Export Plug-In . SVG Version: 6.00 Build 0)  -->
<svg version="1.1" id="Layer_1" xmlns="http://www.w3.org/2000/svg" xmlns:xlink="http://www.w3.org/1999/xlink" x="0px" y="0px"
	 viewBox="0 0 100 100" style="enable-background:new 0 0 100 100;" xml:space="preserve">
<style type="text/css">
	.st0{fill:none;stroke:#231F20;stroke-width:5;stroke-miterlimit:10;}
	.st1{fill:none;stroke:#231F20;stroke-width:7;stroke-miterlimit:10;}
	.st2{fill:#FFFFFF;}
	.st3{fill:#FFFFFF;stroke:#231F20;stroke-width:4;stroke-miterlimit:10;}
	.st4{fill:none;stroke:#231F20;stroke-width:4;stroke-miterlimit:10;}
	.st5{fill:none;stroke:#231F20;stroke-width:4;stroke-linejoin:round;stroke-miterlimit:10;}
	.st6{fill:#FFFFFF;stroke:#231F20;stroke-width:5;stroke-miterlimit:10;}
	.st7{fill:none;stroke:#231F20;stroke-width:3;stroke-linejoin:round;stroke-miterlimit:10;}
</style>
<g>
	<path class="st2" d="M50,95.8L14.8,60.5c-4.9-4.9-7.6-11.4-7.6-18.3s2.7-13.4,7.6-18.3c4.9-4.9,11.4-7.6,18.3-7.6
		c6.3,0,12.2,2.2,16.9,6.2c4.7-4,10.6-6.2,16.9-6.2c6.9,0,13.4,2.7,18.3,7.6c10.1,10.1,10.1,26.6,0,36.7l-0.3,0.3L50,95.8z
		 M33.1,21.2c-5.6,0-10.9,2.2-14.8,6.1c-4,4-6.1,9.2-6.1,14.8c0,5.6,2.2,10.9,6.1,14.8l0.3,0.3L50,88.7L81.7,57
		c8.2-8.2,8.2-21.5,0-29.6c-4-4-9.2-6.1-14.8-6.1S56,23.4,52.1,27.4L50,29.4l-2.1-2.1C44,23.4,38.7,21.2,33.1,21.2z"/>
</g>
</svg>
