<?xml version="1.0" encoding="utf-8"?>
<!-- Generator: Adobe Illustrator 24.0.1, SVG Export Plug-In . SVG Version: 6.00 Build 0)  -->
<svg version="1.1" id="Layer_1" xmlns="http://www.w3.org/2000/svg" xmlns:xlink="http://www.w3.org/1999/xlink" x="0px" y="0px"
	 viewBox="0 0 200 200" style="enable-background:new 0 0 200 200;" xml:space="preserve">
<style type="text/css">
	.st0{fill:#3C4755;}
</style>
<path class="st0" d="M177.26,99.23h-8.51V68.75C168.75,30.78,137.97,0,100,0S31.25,30.78,31.25,68.75v30.48h-8.51
	c-4.42,0-8,3.58-8,8V192c0,4.42,3.58,8,8,8h154.52c4.42,0,8-3.58,8-8v-84.77C185.26,102.81,181.68,99.23,177.26,99.23z M51.25,68.75
	C51.25,41.87,73.12,20,100,20s48.75,21.87,48.75,48.75v30.48h-97.5V68.75z M113.37,167.69H90.55c-0.66,0-1.14-0.63-0.97-1.27
	L95.5,145c-2.87-2.02-4.74-5.37-4.74-9.15c0-6.18,5.01-11.2,11.2-11.2c6.18,0,11.2,5.02,11.2,11.2c0,3.79-1.88,7.13-4.75,9.15
	l5.92,21.42C114.51,167.06,114.03,167.69,113.37,167.69z"/>
</svg>
