<?xml version="1.0" encoding="utf-8"?>
<!-- Generator: Adobe Illustrator 22.0.1, SVG Export Plug-In . SVG Version: 6.00 Build 0)  -->
<svg version="1.1" id="Layer_1" xmlns="http://www.w3.org/2000/svg" xmlns:xlink="http://www.w3.org/1999/xlink" x="0px" y="0px"
	 viewBox="0 0 100 100" style="enable-background:new 0 0 100 100;" xml:space="preserve">
<style type="text/css">
	.st0{fill:none;stroke:#231F20;stroke-width:5;stroke-miterlimit:10;}
	.st1{fill:none;stroke:#231F20;stroke-width:7;stroke-miterlimit:10;}
	.st2{fill:#FFFFFF;}
	.st3{fill:#FFFFFF;stroke:#231F20;stroke-width:4;stroke-miterlimit:10;}
	.st4{fill:none;stroke:#231F20;stroke-width:4;stroke-miterlimit:10;}
	.st5{fill:none;stroke:#231F20;stroke-width:4;stroke-linejoin:round;stroke-miterlimit:10;}
	.st6{fill:#FFFFFF;stroke:#231F20;stroke-width:5;stroke-miterlimit:10;}
	.st7{fill:none;stroke:#231F20;stroke-width:3;stroke-linejoin:round;stroke-miterlimit:10;}
</style>
<g>
	<path class="st2" d="M51.4,91.1l-1.1-0.5c-25.5-12-37.6-37.2-35.7-75l0.1-1.8l1.7-0.5c23.2-6.8,46.7-6.8,70,0l1.7,0.5l0.1,1.8
		c1.9,37.8-10.2,63-35.7,75L51.4,91.1z M19.5,17.7c-1.3,34.5,9.1,56.7,31.9,67.9c22.7-11.2,33.2-33.4,31.8-67.9
		C62.1,11.7,40.7,11.7,19.5,17.7z"/>
</g>
<g>
	<polygon class="st2" points="46.7,60.4 33.4,47.1 38.4,42.1 46.7,50.5 70.4,26.8 75.4,31.8 	"/>
</g>
</svg>
